{
  "name": "Job",
  "base": "PersistedModel",
  "idInjection": true,
  "options": {
    "validateUpsert": true
  },
  "properties": {
    "queue": {
      "type": "string",
      "required": true,
      "index": true
    },
    "payload": {
      "type": "string",
      "required": true,
      "dataType": "longtext"
    },
    "attempts": {
      "type": "number",
      "required": true,
      "dataType": "tinyint"
    },
    "reserved": {
      "type": "number",
      "required": true,
      "index": true,
      "dataType": "tinyint"
    },
    "reservred_at": {
      "type": "number",
      "index": true
    },
    "available_at": {
      "type": "number",
      "required": true
    },
    "created_at": {
      "type": "number"
    },
    "updated_at": {
      "type": "date"
    }
  },
  "validations": [],
  "relations": {},
  "acls": [],
  "methods": {}
}
